Division,WeightClassKg,Place,Name,Team,BodyweightKg,Best3SquatKg,Best3BenchKg,Best3DeadliftKg,TotalKg,Equipment,Event,Sex,BirthDate
Boys,51.71,1,Kevin Chavez,Royse City,51.71,140.61,68.04,133.81,342.46,Single-ply,SBD,M,
Boys,51.71,2,Jared Ricker,Royse City,47.63,102.06,54.43,102.06,258.55,Single-ply,SBD,M,
Boys,51.71,3,Kelton Varner,Paris,51.26,61.23,58.97,106.59,226.8,Single-ply,SBD,M,
Boys,55.79,1,Ty Kirkbride,Denison,54.66,181.44,95.25,176.9,453.59,Single-ply,SBD,M,
Boys,55.79,2,Jakovi Dabbs,Paris,54.88,151.95,102.06,195.04,449.06,Single-ply,SBD,M,
Boys,55.79,3,Hugo Sanchez,Pattonville Prairiland,55.57,165.56,104.33,154.22,424.11,Single-ply,SBD,M,
Boys,55.79,4,Rikker Suglia,Royse City,55.34,142.88,70.31,142.88,356.07,Single-ply,SBD,M,
Boys,55.79,5,Elijah Burrow,Gilmer,55.79,108.86,83.91,115.67,308.44,Single-ply,SBD,M,
Boys,55.79,6,Jayden Mendez,Mount Pleasant,54.88,106.59,54.43,113.4,274.42,Single-ply,SBD,M,
Boys,59.87,1,Joseph Dornstadter,Denison,58.97,142.88,83.91,161.03,387.82,Single-ply,SBD,M,
Boys,59.87,2,Braydon Beck,Paris,59.33,151.95,81.65,145.15,378.75,Single-ply,SBD,M,
Boys,59.87,3,David Chavez,Mount Pleasant,59.65,138.35,83.91,142.88,365.14,Single-ply,SBD,M,
Boys,59.87,4,Cannon Miller,Wolfe City,59.65,129.27,74.84,115.67,319.78,Single-ply,SBD,M,
Boys,59.87,5,Stetson Brannon,Royse City,59.87,115.67,70.31,124.74,310.71,Single-ply,SBD,M,
Boys,59.87,6,Carson Herron,Wolfe City,59.87,122.47,79.38,90.72,292.57,Single-ply,SBD,M,
Boys,59.87,7,Kelvin Clark,Cooper,56.93,115.67,56.7,111.13,283.5,Single-ply,SBD,M,
Boys,67.13,1,Kyson Lusane,Denison,61.01,204.12,133.81,192.78,530.7,Single-ply,SBD,M,
Boys,67.13,2,Johnathan Jones,Paris,66.45,226.8,106.59,192.78,526.17,Single-ply,SBD,M,
Boys,67.13,3,Freddy Ponce,Gilmer,64.41,174.63,127.01,172.37,474,Single-ply,SBD,M,
Boys,67.13,4,Avery Weaver,Gilmer,67.13,170.1,97.52,185.97,453.59,Single-ply,SBD,M,
Boys,67.13,5,Diesel Tijerina,Royse City,66,142.88,90.72,158.76,392.36,Single-ply,SBD,M,
Boys,67.13,6,Lino Diaz,Gilmer,61.46,145.15,79.38,165.56,390.09,Single-ply,SBD,M,
Boys,67.13,7,Jace Oliver,Royse City,65.09,147.42,86.18,154.22,387.82,Single-ply,SBD,M,
Boys,67.13,8,Keenan Hudson,Pattonville Prairiland,60.78,127.01,72.57,138.35,337.93,Single-ply,SBD,M,
Boys,67.13,9,Victor Hernandez #11,Wolfe City,67.13,122.47,74.84,136.08,333.39,Single-ply,SBD,M,
Boys,67.13,10,Hayden Brown,Wolfe City,63.73,117.93,68.04,117.93,303.91,Single-ply,SBD,M,
Boys,67.13,11,Drake McComb,Pattonville Prairiland,62.82,113.4,70.31,108.86,292.57,Single-ply,SBD,M,
Boys,74.84,1,Jacori Turner,Mount Pleasant,72.8,172.37,117.93,163.29,453.59,Single-ply,SBD,M,
Boys,74.84,2,Jarrett Tisdale,Wolfe City,72.8,145.15,102.06,142.88,390.09,Single-ply,SBD,M,
Boys,74.84,3,Ean Rodgers,Royse City,73.26,113.4,111.13,147.42,371.95,Single-ply,SBD,M,
Boys,74.84,4,Fogelberg Jackson,Cooper,73.71,122.47,79.38,102.06,303.91,Single-ply,SBD,M,
Boys,74.84,DQ,Luke Holyfield,Gilmer,70.76,156.49,,,,Single-ply,SBD,M,
Boys,82.1,1,Aaron Shafer,Denison,82.1,226.8,129.27,204.12,560.19,Single-ply,SBD,M,
Boys,82.1,2,Kadyn McDonald,Paris,78.02,217.72,113.4,226.8,557.92,Single-ply,SBD,M,
Boys,82.1,3,Elias Elizando,Mount Pleasant,81.42,195.04,120.2,226.8,542.04,Single-ply,SBD,M,
Boys,82.1,4,Noah Stegman,Denison,81.42,188.24,142.88,206.38,537.51,Single-ply,SBD,M,
Boys,82.1,5,Keegan Sprouse,Gilmer,80.74,185.97,129.27,215.46,530.7,Single-ply,SBD,M,
Boys,82.1,6,Reggie Ellis,Paris,81.19,192.78,117.93,199.58,510.29,Single-ply,SBD,M,
Boys,82.1,7,Fernando Cortes,Pattonville Prairiland,77.56,179.17,127.01,188.24,494.42,Single-ply,SBD,M,
Boys,82.1,8,Gabriel Duncan,Royse City,81.87,170.1,106.59,181.44,458.13,Single-ply,SBD,M,
Boys,82.1,9,JD Johnson,Paris Chisum,82.1,154.22,102.06,154.22,410.5,Single-ply,SBD,M,
Boys,82.1,10,Esteban Trejo,Mount Pleasant,80.74,163.29,77.11,167.83,408.23,Single-ply,SBD,M,
Boys,82.1,11,Zach Helms,Cooper,81.65,165.56,90.72,142.88,399.16,Single-ply,SBD,M,
Boys,82.1,12,Elijah Turner,Paris,81.19,136.08,92.99,142.88,371.95,Single-ply,SBD,M,
Boys,82.1,13,Oscar Otero,Mount Pleasant,75.75,120.2,81.65,167.83,369.68,Single-ply,SBD,M,
Boys,82.1,14,Zaine Thompson,Cooper,78.93,142.88,92.99,124.74,360.61,Single-ply,SBD,M,
Boys,82.1,15,Wheeler Hayes,Sherman Texoma Christian School,82.1,124.74,63.5,140.61,328.85,Single-ply,SBD,M,
Boys,89.81,1,Patrick Roland,Paris,89.36,226.8,136.08,226.8,589.67,Single-ply,SBD,M,
Boys,89.81,2,Joey Allen,Paris,88.9,219.99,136.08,224.53,580.6,Single-ply,SBD,M,
Boys,89.81,3,Jariah Moore,Paris,89.13,206.38,102.06,226.8,535.24,Single-ply,SBD,M,
Boys,89.81,4,Daniel Garcia #12,Mount Pleasant,85.05,206.38,97.52,213.19,517.1,Single-ply,SBD,M,
Boys,89.81,5,Michael Deering,Denison,88.68,183.7,124.74,208.65,517.1,Single-ply,SBD,M,
Boys,89.81,6,Cole Gilbert,Pattonville Prairiland,85.05,185.97,115.67,188.24,489.88,Single-ply,SBD,M,
Boys,89.81,7,Ryder Marshall,Mount Pleasant,86.41,172.37,102.06,192.78,467.2,Single-ply,SBD,M,
Boys,89.81,8,Chase Marcum,Denison,83.01,163.29,102.06,185.97,451.32,Single-ply,SBD,M,
Boys,89.81,9,Ben Wooters,Paris Chisum,87.77,174.63,88.45,174.63,437.72,Single-ply,SBD,M,
Boys,89.81,10,Yunior Burciaga,Wolfe City,89.81,145.15,106.59,151.95,403.7,Single-ply,SBD,M,
Boys,89.81,11,Jamie Froese,Paris Chisum,82.55,120.2,92.99,158.76,371.95,Single-ply,SBD,M,
Boys,89.81,12,Aaron Moody,Cooper,84.59,147.42,92.99,124.74,365.14,Single-ply,SBD,M,
Boys,89.81,13,Gage Sanders,Wolfe City,85.73,129.27,86.18,122.47,337.93,Single-ply,SBD,M,
Boys,89.81,14,Joshua Bridges,Cooper,89.81,120.2,92.99,102.06,315.25,Single-ply,SBD,M,
Boys,99.79,1,Seth Jordan,Gilmer,94.12,215.46,122.47,217.72,555.65,Single-ply,SBD,M,
Boys,99.79,2,Landon Bailey,Pattonville Prairiland,98.2,204.12,138.35,199.58,542.04,Single-ply,SBD,M,
Boys,99.79,3,Nate Williams,Royse City,99.56,192.78,138.35,204.12,535.24,Single-ply,SBD,M,
Boys,99.79,4,Kris Miranda,Pattonville Prairiland,90.26,188.24,136.08,188.24,512.56,Single-ply,SBD,M,
Boys,99.79,5,Daniel Emuakpeje,Royse City,99.79,192.78,113.4,199.58,505.76,Single-ply,SBD,M,
Boys,99.79,6,Chris Thornley,Gilmer,90.26,165.56,102.06,165.56,433.18,Single-ply,SBD,M,
Boys,99.79,7,Hutson Maddox,Paris Chisum,99.34,142.88,117.93,165.56,426.38,Single-ply,SBD,M,
Boys,99.79,8,Christian Hernandez,Wolfe City,91.17,149.69,113.4,147.42,410.5,Single-ply,SBD,M,
Boys,99.79,9,Alex Angel,Wolfe City,90.26,149.69,95.25,145.15,390.09,Single-ply,SBD,M,
Boys,99.79,DQ,Jose Gonzalez #24,Mount Pleasant,90.72,,,,,Single-ply,SBD,M,
Boys,109.77,1,Hayden Thomas,Pattonville Prairiland,100.7,256.28,167.83,260.82,684.92,Single-ply,SBD,M,
Boys,109.77,2,Trent Tennon,Paris,105.69,238.14,138.35,260.82,637.3,Single-ply,SBD,M,
Boys,109.77,3,Tyler Dean,Royse City,109.77,235.87,163.29,210.92,610.08,Single-ply,SBD,M,
Boys,109.77,4,Carsen Cox,Pattonville Prairiland,108.86,235.87,129.27,240.4,605.55,Single-ply,SBD,M,
Boys,109.77,5,Clayton Miller,Mount Pleasant,109.32,210.92,151.95,199.58,562.45,Single-ply,SBD,M,
Boys,109.77,6,Astin Ledbetter,Mount Pleasant,104.55,179.17,142.88,229.06,551.11,Single-ply,SBD,M,
Boys,109.77,7,Cooper Duce,Denison,101.6,192.78,115.67,213.19,521.63,Single-ply,SBD,M,
Boys,109.77,8,Max Figueroa,Wolfe City,102.06,181.44,136.08,192.78,510.29,Single-ply,SBD,M,
Boys,109.77,9,Ezayl Tovar,Wolfe City,104.55,190.51,127.01,163.29,480.81,Single-ply,SBD,M,
Boys,109.77,10,Caleb Akins,Denison,109.32,181.44,113.4,163.29,458.13,Single-ply,SBD,M,
Boys,109.77,11,Jackson Bridges,Denison,105.23,167.83,99.79,165.56,433.18,Single-ply,SBD,M,
Boys,109.77,12,Case Chalaire,Paris Chisum,102.06,145.15,90.72,158.76,394.63,Single-ply,SBD,M,
Boys,109.77,13,Ryan McDermot,Cooper,101.6,142.88,70.31,142.88,356.07,Single-ply,SBD,M,
Boys,109.77,14,Alex Puentes,Wolfe City,102.06,136.08,95.25,113.4,344.73,Single-ply,SBD,M,
Boys,124.74,1,Micah Shepherd,Mount Pleasant,115.21,242.67,161.03,229.06,632.76,Single-ply,SBD,M,
Boys,124.74,2,Nathan Orrick,Denison,122.02,215.46,151.95,235.87,603.28,Single-ply,SBD,M,
Boys,124.74,3,Salvador Gomez,Paris,124.19,240.4,113.4,188.24,542.04,Single-ply,SBD,M,
Boys,124.74,4,Dalton Brown,Denison,121.79,179.17,120.2,192.78,492.15,Single-ply,SBD,M,
Boys,124.74,5,Cody Kilgo,Wolfe City,110.9,136.08,102.06,129.27,367.41,Single-ply,SBD,M,
Boys,139.71,1,Braelyn Ward,Gilmer,128.37,242.67,158.76,235.87,637.3,Single-ply,SBD,M,
Boys,139.71,2,Luke England,Paris Chisum,126.78,136.08,108.86,142.88,387.82,Single-ply,SBD,M,
Boys,139.71,DQ,Barden Tittle,Royse City,125.19,,,,,Single-ply,SBD,M,
Boys,139.71+,1,Satchel Swain,Paris,141.34,317.51,188.24,265.35,771.11,Single-ply,SBD,M,
