Place,WeightClassKg,Name,BirthDate,Equipment,Team,BodyweightKg,Squat1Kg,Squat2Kg,Squat3Kg,Best3SquatKg,Bench1Kg,Bench2Kg,Bench3Kg,Best3BenchKg,Deadlift1Kg,Deadlift2Kg,Deadlift3Kg,Best3DeadliftKg,TotalKg,Division,Sex,Event
1,69,Anne Lise Sæthre,,Raw,Bergen SK,65.1,65,72.5,77.5,77.5,45,47.5,-50,47.5,90,100,105,105,230,Masters 60-69,F,SBD
1,84+,Anne Hellem,,Raw,Bergen SK,97.1,100,110,115,115,57.5,-65,-65,57.5,120,127.5,130,130,302.5,Masters 60-69,F,SBD
1,105,Tom Atle Jermstad,,Raw,Bergen SK,97.2,,,,,152.5,162.5,170,170,,,,,170,Open,M,B
1,105,Jan Helge Høvset,,Raw,Bergen SK,104.8,,,,,150,157.5,-162.5,157.5,,,,,157.5,Masters 50-59,M,B
G,53,Benjamin Osnes Ljosland,,Raw,Bergen SK,48.9,-45,55,60,60,30,35,40,40,50,60,70,70,170,Rekrutt 2,M,SBD
G,52,Hedda Welsh Havikbotn,,Raw,Bergen SK,52,30,35,40,40,25,30,-32.5,30,40,-50,60,60,130,Rekrutt 2,F,SBD
