Name,Division,BodyweightKg,WeightClassKg,BirthDate,BirthYear,Sex,Squat1Kg,Squat2Kg,Squat3Kg,Best3SquatKg,Bench1Kg,Bench2Kg,Bench3Kg,Best3BenchKg,Deadlift1Kg,Deadlift2Kg,Deadlift3Kg,Best3DeadliftKg,TotalKg,Equipment,Event,Place
Jeroen Van Heesvelde,Open,104.8,105,,1990,M,260,-281,281,281,192.5,200,205.5,205.5,275,295,306,306,792.5,Raw,SBD,1
Rob Esselens,Open,91.55,93,,1994,M,250,260,263,263,180,185.5,-187.5,185.5,275,285,291,291,739.5,Raw,SBD,1
Steve Ringoot,Open,152,120+,,1989,M,310,325,340,340,210,220,227.5,227.5,310,337.5,,337.5,905,Raw,SBD,1
Jochen Strubbe,Juniors,102.5,105,,1998,M,240,252.5,265.5,265.5,140,147.5,157.5,157.5,260,280,300.5,300.5,723.5,Raw,SBD,1
Pieter van der Linden,Juniors,91.9,93,,1998,M,220,240,-250,240,130,140,150,150,260,280,-291,280,670,Raw,SBD,1
Nick Blockmans,Sub-Juniors,62.3,66,,2003,M,170,175,-180.5,175,117.5,-122.5,-122.5,117.5,190,202.5,-210,202.5,495,Raw,SBD,1
