Division,WeightClassKg,Place,Name,Team,BodyweightKg,Best3SquatKg,Best3BenchKg,Best3DeadliftKg,TotalKg,Equipment,Event,Sex
Boys,51.71,1,Adam Morton,Louise,50.71,133.81,79.38,151.95,365.14,Single-ply,SBD,M
Boys,51.71,2,Jonathon Cardenas,Freeport Brazosport,50.89,92.99,68.04,131.54,292.57,Single-ply,SBD,M
Boys,51.71,3,Hunter Gartman,Clute Brazoswood,50.44,79.38,47.63,97.52,224.53,Single-ply,SBD,M
Boys,51.71,4,Ricardo Gallardo,Freeport Brazosport,51.53,,49.9,99.79,149.69,Single-ply,BD,M
Boys,59.87,1,Cameron Guillen,Clute Brazoswood,55.88,136.08,79.38,142.88,358.34,Single-ply,SBD,M
Boys,55.79,2,Santiago Centeno,Bay City,54.43,120.2,72.57,127.01,319.78,Single-ply,SBD,M
Boys,55.79,3,Adrian Martinez #6,Texas City,55.79,111.13,68.04,120.2,299.37,Single-ply,SBD,M
Boys,55.79,4,Matt Britt,Manvel,52.07,102.06,56.7,115.67,274.42,Single-ply,SBD,M
Boys,55.79,DQ,Matthew Riddick,Crosby,55.79,,,,,Single-ply,SBD,M
Boys,67.13,1,Jakob Rios,Clute Brazoswood,60.1,154.22,92.99,165.56,412.77,Single-ply,SBD,M
Boys,59.87,DQ,Angel Galvan,Crosby,59.87,,,,,Single-ply,SBD,M
Boys,59.87,DQ,Juan Ochoa,Crosby,59.87,,,,,Single-ply,SBD,M
Boys,59.87,DQ,Nathaniel Walker,Hitchcock,59.87,,,,,Single-ply,SBD,M
Boys,67.13,1,Zachary Mutchler,Manvel,61.96,165.56,124.74,174.63,464.93,Single-ply,SBD,M
Boys,67.13,2,Jordan Aguilar,Clute Brazoswood,66.32,165.56,92.99,154.22,412.77,Single-ply,SBD,M
Boys,67.13,3,Kevin Lozano,Bay City,61.69,151.95,90.72,149.69,392.36,Single-ply,SBD,M
Boys,67.13,4,Josh Rodriguez,Clute Brazoswood,63.78,136.08,74.84,151.95,362.87,Single-ply,SBD,M
Boys,67.13,5,Na'Vontae Darthard,Freeport Brazosport,66.41,,79.38,183.7,263.08,Single-ply,BD,M
Boys,67.13,DQ,Melech Edwards,Crosby,67.13,,,,,Single-ply,BD,M
Boys,67.13,DQ,Eleazar Pena,Hitchcock,67.13,,,,,Single-ply,BD,M
Boys,67.13,DQ,Chase Dodge,Clute Brazoswood,67.13,,,,,Single-ply,BD,M
Boys,67.13,DQ,Jeremiah Credit,Freeport Brazosport,67.13,,,,,Single-ply,BD,M
Boys,67.13,DQ,Michael Parker,Hitchcock,67.13,,,,,Single-ply,BD,M
Boys,82.1,1,Da'Shaun Smith,Bay City,74.93,206.38,122.47,199.58,528.44,Single-ply,SBD,M
Boys,82.1,2,Tahj Edwards,Freeport Brazosport,75.02,192.78,106.59,206.38,505.76,Single-ply,SBD,M
Boys,74.84,3,Samuel Fisher,Bay City,72.03,195.04,122.47,183.7,501.22,Single-ply,SBD,M
Boys,74.84,4,Lance Cole,Crosby,74.39,170.1,113.4,158.76,442.25,Single-ply,SBD,M
Boys,74.84,5,Jared Hernandez,Texas City,69.76,142.88,83.91,174.63,401.43,Single-ply,SBD,M
Boys,74.84,6,Nick Bell,Clute Brazoswood,74.48,97.52,102.06,158.76,358.34,Single-ply,SBD,M
Boys,74.84,7,Jahcyi Thomas,Freeport Brazosport,73.57,,92.99,174.63,267.62,Single-ply,BD,M
Boys,74.84,8,Zack Fisher,Texas City,70.76,,,140.61,140.61,Single-ply,D,M
Boys,74.84,DQ,Jason Wilson,Manvel,74.84,,,,,Single-ply,D,M
Boys,82.1,1,John Saenz,Clute Brazoswood,81.74,247.21,122.47,192.78,562.45,Single-ply,SBD,M
Boys,82.1,2,Trevor Larkin,Crosby,79.11,192.78,124.74,188.24,505.76,Single-ply,SBD,M
Boys,82.1,3,LaKeith Brown,Crosby,81.01,192.78,108.86,190.51,492.15,Single-ply,SBD,M
Boys,82.1,4,Nathan Lewis,Freeport Brazosport,81.19,181.44,90.72,210.92,483.08,Single-ply,SBD,M
Boys,82.1,5,Eric Lucio,Bay City,76.75,192.78,97.52,190.51,480.81,Single-ply,SBD,M
Boys,82.1,6,Drew Lowery,Clute Brazoswood,76.11,165.56,111.13,181.44,458.13,Single-ply,SBD,M
Boys,82.1,7,Kevin Dunaway,Manvel,75.66,165.56,90.72,174.63,430.91,Single-ply,SBD,M
Boys,82.1,8,James Ash,Clute Brazoswood,81.37,161.03,83.91,167.83,412.77,Single-ply,SBD,M
Boys,82.1,9,Leonard Owens,Manvel,78.2,176.9,,183.7,360.61,Single-ply,SD,M
Boys,82.1,10,Kolbi Foster,Clute Brazoswood,76.66,124.74,65.77,129.27,319.78,Single-ply,SBD,M
Boys,82.1,11,Raymond Gonzales #2,Bay City,79.83,181.44,111.13,,292.57,Single-ply,SB,M
Boys,82.1,12,Ashanti Walker,Texas City,76.93,181.44,,,181.44,Single-ply,S,M
Boys,82.1,13,Ismael Guevara,Freeport Brazosport,76.29,165.56,,,165.56,Single-ply,S,M
Boys,82.1,DQ,Tj Combs,Hitchcock,82.1,,,,,Single-ply,S,M
Boys,82.1,DQ,Vernon Allen,Crosby,82.1,,,,,Single-ply,S,M
Boys,82.1,DQ,Malik Campbell,Freeport Brazosport,82.1,,,,,Single-ply,S,M
Boys,82.1,DQ,Steven Blevins,Texas City,82.1,,,,,Single-ply,S,M
Boys,89.81,1,Eric Hembling,Clute Brazoswood,84.73,188.24,111.13,226.8,526.17,Single-ply,SBD,M
Boys,89.81,2,Caleb Lamberth,Manvel,84.37,192.78,124.74,204.12,521.63,Single-ply,SBD,M
Boys,89.81,3,Adrian Ruiz,Bay City,88.18,192.78,142.88,174.63,510.29,Single-ply,SBD,M
Boys,89.81,4,Aaron Sollock,Clute Brazoswood,84.19,183.7,129.27,176.9,489.88,Single-ply,SBD,M
Boys,89.81,5,Daniel Martinez #15,Freeport Brazosport,88.72,172.37,99.79,172.37,444.52,Single-ply,SBD,M
Boys,89.81,6,David Eudoxie,Clute Brazoswood,88.27,145.15,99.79,165.56,410.5,Single-ply,SBD,M
Boys,89.81,DQ,Blake Wright,Crosby,89.81,,,,,Single-ply,SBD,M
Boys,89.81,DQ,Matthew Richardson,Hitchcock,89.81,,,,,Single-ply,SBD,M
Boys,89.81,DQ,Logan Holt,Hitchcock,89.81,,,,,Single-ply,SBD,M
Boys,89.81,DQ,Brent Smith,Hitchcock,89.81,,,,,Single-ply,SBD,M
Boys,89.81,DQ,Robert Hurta,Freeport Brazosport,89.81,,,,,Single-ply,SBD,M
Boys,99.79,1,Chase Nix,Crosby,97.61,260.82,170.1,260.82,691.73,Single-ply,SBD,M
Boys,99.79,2,Chris Sherrill,Bay City,93.62,272.16,176.9,235.87,684.92,Single-ply,SBD,M
Boys,99.79,3,Francios Bonilla,Texas City,96.25,242.67,158.76,222.26,623.69,Single-ply,SBD,M
Boys,109.77,4,Corey Green,Freeport Brazosport,99.97,215.46,154.22,201.85,571.53,Single-ply,SBD,M
Boys,99.79,5,Stevan Gonzalvez,Clute Brazoswood,96.62,238.14,136.08,192.78,566.99,Single-ply,SBD,M
Boys,99.79,6,Mark Contreras,Freeport Brazosport,97.07,,117.93,192.78,310.71,Single-ply,BD,M
Boys,99.79,7,Ruben Garcia,Freeport Brazosport,99.61,,97.52,,97.52,Single-ply,B,M
Boys,99.79,DQ,Hunter Thiem,Hitchcock,99.79,,,,,Single-ply,B,M
Boys,99.79,DQ,D'Vonte Hinto,Texas City,99.79,,,,,Single-ply,B,M
Boys,109.77,1,Nestor Mendez,Freeport Brazosport,105.32,226.8,151.95,251.74,630.49,Single-ply,SBD,M
Boys,109.77,2,JR Rodriguez,Bay City,106.87,265.35,142.88,215.46,623.69,Single-ply,SBD,M
Boys,124.74,3,David Nunez,Freeport Brazosport,109.95,226.8,167.83,185.97,580.6,Single-ply,SBD,M
Boys,109.77,4,Carlos Martinez #16,Louise,107.23,247.21,142.88,176.9,566.99,Single-ply,SBD,M
Boys,109.77,5,Larenzo Beaza,Texas City,102.6,210.92,145.15,204.12,560.19,Single-ply,SBD,M
Boys,109.77,6,Jorge Franco,Louise,103.78,231.33,113.4,204.12,548.85,Single-ply,SBD,M
Boys,109.77,7,Cristian Vargas,Bay City,104.6,213.19,127.01,195.04,535.24,Single-ply,SBD,M
Boys,109.77,8,Corey Shields,Clute Brazoswood,105.6,210.92,111.13,199.58,521.63,Single-ply,SBD,M
Boys,109.77,9,Kurtis Williams,Clute Brazoswood,108.95,183.7,106.59,192.78,483.08,Single-ply,SBD,M
Boys,109.77,10,Troy Beckham,Clute Brazoswood,107.41,167.83,129.27,158.76,455.86,Single-ply,SBD,M
Boys,109.77,DQ,Robert Guidry,Manvel,109.77,,,,,Single-ply,SBD,M
Boys,109.77,DQ,D'Angelo Hernandez,Manvel,109.77,,,,,Single-ply,SBD,M
Boys,109.77,DQ,Carlos Alvarez,Hitchcock,109.77,,,,,Single-ply,SBD,M
Boys,124.74,1,Josh Opiela,Crosby,124.1,317.51,174.63,233.6,725.75,Single-ply,SBD,M
Boys,124.74,2,Chris Gomez,Freeport Brazosport,114.94,260.82,167.83,195.04,623.69,Single-ply,SBD,M
Boys,124.74,3,Jonathan Alfred,Manvel,122.02,229.06,140.61,233.6,603.28,Single-ply,SBD,M
Boys,124.74,4,Jimmy LaFata,Clute Brazoswood,112.22,235.87,129.27,215.46,580.6,Single-ply,SBD,M
Boys,124.74,5,Keyshawn Pettieway,Crosby,118.66,210.92,154.22,197.31,562.45,Single-ply,SBD,M
Boys,124.74,6,Scott Christ,Manvel,121.65,204.12,111.13,210.92,526.17,Single-ply,SBD,M
Boys,124.74,7,Ramsey Ramirez,Texas City,113.49,213.19,115.67,195.04,523.9,Single-ply,SBD,M
Boys,124.74,8,Joseph Wilburn,Bay City,114.03,226.8,97.52,176.9,501.22,Single-ply,SBD,M
Boys,124.74,9,Chris Mock,Texas City,116.57,185.97,115.67,197.31,498.95,Single-ply,SBD,M
Boys,124.74,10,Caleb James,Clute Brazoswood,110.13,188.24,104.33,195.04,487.61,Single-ply,SBD,M
Boys,124.74,11,CJ Bench,Clute Brazoswood,117.66,165.56,102.06,163.29,430.91,Single-ply,SBD,M
Boys,124.74,DQ,Victor Sanchez,Hitchcock,124.74,,,,,Single-ply,SBD,M
Boys,124.74,DQ,Rene Rodriguez,Crosby,124.74,,,,,Single-ply,SBD,M
Boys,124.74+,1,Alex Pina,Clute Brazoswood,126.92,235.87,133.81,210.92,580.6,Single-ply,SBD,M
Boys,124.74+,2,Keenan Murphy,Crosby,130.09,215.46,122.47,215.46,553.38,Single-ply,SBD,M
Boys,124.74+,3,Austin Closs,Freeport Brazosport,139.34,197.31,108.86,183.7,489.88,Single-ply,SBD,M
Boys,124.74+,4,Bryce Wilds,Freeport Brazosport,136.62,170.1,97.52,172.37,439.98,Single-ply,SBD,M
Boys,124.74+,DQ,Matthew Gregory,Crosby,125.19,,,,,Single-ply,SBD,M
Boys,124.74+,DQ,Tate Smith,Texas City,125.19,,,,,Single-ply,SBD,M
