Name,Team,Sex,BodyweightKg,WeightClassKg,BirthYear,Squat1Kg,Squat2Kg,Squat3Kg,Best3SquatKg,Bench1Kg,Bench2Kg,Bench3Kg,Best3BenchKg,Deadlift1Kg,Deadlift2Kg,Deadlift3Kg,Best3DeadliftKg,TotalKg,Place,Division,BirthDate,Event,Equipment
Ira Neitzel,Kraftsport Colonia,F,51.52,52,1981,125,135,142.5,142.5,70,-80,80,80,112.5,122.5,130,130,352.5,6,Open,,SBD,Single-ply
Romina Basting,KG Forchheim-München,F,55.9,57,1993,150,-157.5,157.5,157.5,72.5,80,-87.5,80,105,-120,120,120,357.5,5,Open,,SBD,Single-ply
Lea-Sophie Gersberg,Powerlifting Würzburg e.V.,F,60.74,63,,160,165,170,170,110,115,-122.5,115,150,157.5,165,165,450,2,Open,,SBD,Single-ply
Miriam Kersel,KG Forchheim-München,F,65.1,69,1999,155,162.5,170,170,80,85,90,90,120,135,150,150,410,5,Open,,SBD,Single-ply
Marie Hauschild,SAV Erfurt e.V.,F,66.24,69,,185,-195,205,205,-125,-125,-125,,170,175,-180,175,,DQ,Open,,SBD,Single-ply
Verena Rehagel,Powerlifting Würzburg e.V.,F,68.8,69,,155,162.5,-167.5,162.5,82.5,87.5,92.5,92.5,140,152.5,160,160,415,2,Open,,SBD,Single-ply
Sonja Graumann,SC Oberölsbach,F,68.9,69,1996,130,137.5,142.5,142.5,65,70,75,75,122.5,130,137.5,137.5,355,7,Open,,SBD,Single-ply
Elke Erbs,KBV Bautzen,F,70.25,76,,145,155,160,160,75,100,-105,100,155,165,175,175,435,11,Open,,SBD,Single-ply
Katja Broxtermann,Sanssouci GYM Pot w,F,73.4,76,,140,150,160,160,90,135,140,140,150,165,180,180,480,3,Open,,SBD,Single-ply
Friederike Hoppe,Kraftsport Colonia,F,73.82,76,1984,150,157.5,162.5,162.5,100,105,-110,105,167.5,175,-182.5,175,442.5,6,Open,,SBD,Single-ply
Sofia Walter,SC Oberölsbach,F,75,76,1996,180,190,,190,110,117.5,-125,117.5,152.5,160,165,165,472.5,7,Open,,SBD,Single-ply
Martin Puchert,AC Siefgried Darmstadt,M,73.84,74,1990,175,185,190,190,120,125,-127.5,125,205,220,-227.5,220,535,10,Open,,SBD,Single-ply
Lukas Markaschke,Sanssouci GYM Pot m,M,75.05,83,,220,232.5,240,240,105,112.5,-117.5,112.5,220,230,240,240,592.5,3,Open,,SBD,Single-ply
Robert Göpfert,SAV Erfurt e.V.,M,76.02,83,,180,190,-195,190,117.5,122.5,125,125,210,225,-230,225,540,9,Open,,SBD,Single-ply
Maximilian Göpfert,SAV Erfurt e.V.,M,76.76,83,,175,185,,185,115,125,127.5,127.5,200,-205,-205,200,512.5,9,Open,,SBD,Single-ply
Semir Kamhawi,SG Randersacker,M,78,83,,165,175,-185,175,105,-110,-110,105,-212.5,222.5,-230,222.5,502.5,12,Open,,SBD,Single-ply
Tom Milsch,KSV Essen 1888,M,81.86,83,1993,200,-210,-210,200,135,-142.5,-142.5,135,230,-232.5,-232.5,230,565,1,Open,,SBD,Single-ply
Nico Ruhland,KBV Bautzen,M,82.05,83,,175,182.5,190,190,130,137.5,140,140,215,222.5,230,230,560,11,Open,,SBD,Single-ply
Simon Eichler,KG Forchheim-München,M,82.45,83,1993,-240,240,250,250,190,200,-207.5,200,230,250,-265,250,700,5,Open,,SBD,Single-ply
Hubert Wagner,KBV Bautzen,M,82.65,83,,-250,250,265,265,175,182.5,187.5,187.5,275,290,-300,290,742.5,11,Open,,SBD,Single-ply
Marco Dömling,SG Randersacker,M,83.3,93,,205,220,230,230,130,137.5,142.5,142.5,200,212.5,217.5,217.5,590,12,Open,,SBD,Single-ply
Ron Kronschwitz,Sanssouci GYM Pot m,M,83.9,93,,250,260,270,270,-185,185,-190,185,220,235,-245,235,690,3,Open,,SBD,Single-ply
Eduard Tepper,SV Motor Barth,M,84.45,93,,255,-275,-280,255,195,-202.5,-202.5,195,260,-280,280,280,730,4,Open,,SBD,Single-ply
Amon Bade,VfB Klötze,M,85.05,93,,200,210,-222.5,210,-140,140,-150,140,200,-210,210,210,560,8,Open,,SBD,Single-ply
Andreas Staude,TSV Katzwang 05,M,86.65,93,,180,-195,200,200,-140,-140,-140,,,,,,,DQ,Open,,SBD,Single-ply
Hannes Haase,SV Motor Barth,M,87.55,93,,265,280,295,295,205,220,225,225,225,-250,250,250,770,4,Open,,SBD,Single-ply
Sascha Stern,SAV Erfurt e.V.,M,88.2,93,,175,185,190,190,145,150,155,155,215,225,235,235,580,9,Open,,SBD,Single-ply
Jannik Kehrein,AC Siefgried Darmstadt,M,93.1,105,2003,245,260,270,270,155,162.5,170,170,255,270,285,285,725,10,Open,,SBD,Single-ply
Ruben Amon,Powerlifting Würzburg e.V.,M,93.26,105,,280,290,-300,290,170,175,182.5,182.5,240,-255,-255,240,712.5,2,Open,,SBD,Single-ply
Christian Rapke,VfB Klötze,M,93.95,105,,-185,190,200,200,135,-140,140,140,-200,200,210,210,550,8,Open,,SBD,Single-ply
Martin Massat,TSV Katzwang 05,M,94.3,105,1986,220,235,250,250,145,152.5,157.5,157.5,260,280,292.5,292.5,700,13,Open,,SBD,Single-ply
Andreas Schmid,SC Oberölsbach,M,94.75,105,1991,230,245,250,250,152.5,160,165,165,235,252.5,262.5,262.5,677.5,7,Open,,SBD,Single-ply
Matthias Simpig,Sanssouci GYM Pot m,M,98.25,105,,230,240,,240,165,172.5,-180,172.5,230,-240,,230,642.5,3,Open,,SBD,Single-ply
Arnold Greitan,SC Oberölsbach,M,99.2,105,1990,265,275,285,285,175,185,-192.5,185,245,255,260,260,730,7,Open,,SBD,Single-ply
Patrick Lösel,VfB Klötze,M,101.7,105,,290,310,-330,310,230,-240,-240,230,280,-310,,280,820,8,Open,,SBD,Single-ply
Dia Abou Aicha,Kraftsport Colonia,M,103.14,105,1992,250,265,-270,265,152.5,-160,-160,152.5,260,270,277.5,277.5,695,6,Open,,SBD,Single-ply
Thomas Starklauf,KG Forchheim-München,M,103.4,105,1989,275,-287.5,295,295,175,182.5,190,190,275,292.5,300,300,785,5,Open,,SBD,Single-ply
Thomas Ziegler,TSV Katzwang 05,M,104,105,1967,205,-210,210,210,175,182.5,187.5,187.5,205,215,222.5,222.5,620,13,Open,,SBD,Single-ply
Daniel Kunellis,Kraftsport Colonia,M,104.44,105,1993,215,225,-230,225,165,172.5,175,175,255,265,-270,265,665,6,Open,,SBD,Single-ply
Milan Bogner,SG Randersacker,M,104.48,105,,245,255,-265,255,210,-215,-215,210,245,260,270,270,735,12,Open,,SBD,Single-ply
Lennard Alber,VfB Klötze,M,105.55,120,,260,280,-290,280,145,155,-160,155,240,260,-270,260,695,8,Open,,SBD,Single-ply
Jonas Bausewein,Powerlifting Würzburg e.V.,M,106.14,120,,265,275,-285,275,155,162.5,167.5,167.5,255,270,277.5,277.5,720,2,Open,,SBD,Single-ply
Dirk Motzkus,SG Randersacker,M,107.04,120,,220,-227.5,-227.5,220,195,-205,-205,195,200,215,-220,215,630,12,Open,,SBD,Single-ply
Markus Sörgel,TSV Katzwang 05,M,110.8,120,1997,210,220,230,230,210,217.5,-225,217.5,200,215,-230,215,662.5,13,Open,,SBD,Single-ply
Nick Scharkopf,AC Siefgried Darmstadt,M,115.14,120,1999,180,195,205,205,145,152.5,160,160,240,260,280,280,645,10,Open,,SBD,Single-ply
Malte Fleissner,KSV Essen 1888,M,115.62,120,1989,320,340,350,350,240,255,-270,255,305,320,-330,320,925,1,Open,,SBD,Single-ply
Marcel Vitz,KSV Essen 1888,M,115.68,120,1992,345,-360,360,360,227.5,255,260,260,270,285,300,300,920,1,Open,,SBD,Single-ply
Nick Werner,KSV Essen 1888,M,116.88,120,1995,265,275,-285,275,200,-210,210,210,-250,250,270,270,755,1,Open,,SBD,Single-ply
Jan Schnoor,SV Motor Barth,M,121.85,120+,,250,260,270,270,160,170,-177.5,170,260,270,277.5,277.5,717.5,4,Open,,SBD,Single-ply
Sven Neundorf,SV Motor Barth,M,133.3,120+,,270,-285,285,285,215,-225,-232.5,215,215,-220,,215,715,4,Open,,SBD,Single-ply
